{"events":[{"id":18728,"global_id":"portofkingston.org?id=18728","global_id_lineage":["portofkingston.org?id=18728"],"author":"7","status":"publish","date":"2026-01-06 13:34:24","date_utc":"2026-01-06 21:34:24","modified":"2026-01-06 13:34:24","modified_utc":"2026-01-06 21:34:24","url":"https:\/\/portofkingston.org\/event\/wppa-commissioners-seminar\/","rest_url":"https:\/\/portofkingston.org\/wp-json\/tribe\/events\/v1\/events\/18728","title":"WPPA Commissioners Seminar","description":"","excerpt":"","slug":"wppa-commissioners-seminar","image":false,"all_day":true,"start_date":"2026-07-20 00:00:00","start_date_details":{"year":"2026","month":"07","day":"20","hour":"00","minutes":"00","seconds":"00"},"end_date":"2026-07-22 23:59:59","end_date_details":{"year":"2026","month":"07","day":"22","hour":"23","minutes":"59","seconds":"59"},"utc_start_date":"2026-07-20 07:00:00","utc_start_date_details":{"year":"2026","month":"07","day":"20","hour":"07","minutes":"00","seconds":"00"},"utc_end_date":"2026-07-23 06:59:59","utc_end_date_details":{"year":"2026","month":"07","day":"23","hour":"06","minutes":"59","seconds":"59"},"timezone":"America\/Los_Angeles","timezone_abbr":"PDT","cost":"","cost_details":{"currency_symbol":"$","currency_code":"USD","currency_position":"prefix","values":[]},"website":"","show_map":true,"show_map_link":true,"hide_from_listings":false,"sticky":false,"featured":false,"categories":[],"tags":[],"venue":{"id":18730,"author":"7","status":"publish","date":"2026-01-06 13:34:24","date_utc":"2026-01-06 21:34:24","modified":"2026-01-06 13:34:24","modified_utc":"2026-01-06 21:34:24","url":"https:\/\/portofkingston.org\/venue\/wenatchee-washington\/","venue":"Wenatchee, Washington","slug":"wenatchee-washington","show_map":true,"show_map_link":true,"global_id":"portofkingston.org?id=18730","global_id_lineage":["portofkingston.org?id=18730"]},"organizer":[],"custom_fields":[]},{"id":18892,"global_id":"portofkingston.org?id=18892","global_id_lineage":["portofkingston.org?id=18892"],"author":"7","status":"publish","date":"2026-01-26 11:41:09","date_utc":"2026-01-26 19:41:09","modified":"2026-01-26 11:41:09","modified_utc":"2026-01-26 19:41:09","url":"https:\/\/portofkingston.org\/event\/kingston-public-market-102\/","rest_url":"https:\/\/portofkingston.org\/wp-json\/tribe\/events\/v1\/events\/18892","title":"Kingston Public Market","description":"","excerpt":"","slug":"kingston-public-market-102","image":false,"all_day":false,"start_date":"2026-07-26 10:00:00","start_date_details":{"year":"2026","month":"07","day":"26","hour":"10","minutes":"00","seconds":"00"},"end_date":"2026-07-26 15:00:00","end_date_details":{"year":"2026","month":"07","day":"26","hour":"15","minutes":"00","seconds":"00"},"utc_start_date":"2026-07-26 17:00:00","utc_start_date_details":{"year":"2026","month":"07","day":"26","hour":"17","minutes":"00","seconds":"00"},"utc_end_date":"2026-07-26 22:00:00","utc_end_date_details":{"year":"2026","month":"07","day":"26","hour":"22","minutes":"00","seconds":"00"},"timezone":"America\/Los_Angeles","timezone_abbr":"PDT","cost":"","cost_details":{"currency_symbol":"$","currency_code":"USD","currency_position":"prefix","values":[]},"website":"","show_map":true,"show_map_link":true,"hide_from_listings":false,"sticky":false,"featured":false,"categories":[],"tags":[],"venue":{"id":1029,"author":"2","status":"publish","date":"2016-10-15 21:24:54","date_utc":"2016-10-15 21:24:54","modified":"2019-05-03 23:02:54","modified_utc":"2019-05-03 23:02:54","url":"https:\/\/portofkingston.org\/venue\/mike-wallace-park-2\/","venue":"Mike Wallace Marina Park","slug":"mike-wallace-park-2","address":"25864 Washington Blvd NE","city":"Kingston","country":"United States","state":"WA","zip":"98346","stateprovince":"WA","show_map":true,"show_map_link":true,"global_id":"portofkingston.org?id=1029","global_id_lineage":["portofkingston.org?id=1029"]},"organizer":[],"custom_fields":[]},{"id":18180,"global_id":"portofkingston.org?id=18180","global_id_lineage":["portofkingston.org?id=18180"],"author":"7","status":"publish","date":"2025-10-17 16:30:09","date_utc":"2025-10-17 23:30:09","modified":"2026-01-21 09:34:33","modified_utc":"2026-01-21 17:34:33","url":"https:\/\/portofkingston.org\/event\/regular-port-commission-meeting-19\/","rest_url":"https:\/\/portofkingston.org\/wp-json\/tribe\/events\/v1\/events\/18180","title":"Regular Port Commission Meeting","description":"","excerpt":"","slug":"regular-port-commission-meeting-19","image":false,"all_day":false,"start_date":"2026-07-29 18:30:00","start_date_details":{"year":"2026","month":"07","day":"29","hour":"18","minutes":"30","seconds":"00"},"end_date":"2026-07-29 20:30:00","end_date_details":{"year":"2026","month":"07","day":"29","hour":"20","minutes":"30","seconds":"00"},"utc_start_date":"2026-07-30 01:30:00","utc_start_date_details":{"year":"2026","month":"07","day":"30","hour":"01","minutes":"30","seconds":"00"},"utc_end_date":"2026-07-30 03:30:00","utc_end_date_details":{"year":"2026","month":"07","day":"30","hour":"03","minutes":"30","seconds":"00"},"timezone":"America\/Los_Angeles","timezone_abbr":"PDT","cost":"","cost_details":{"currency_symbol":"$","currency_code":"USD","currency_position":"prefix","values":[]},"website":"","show_map":true,"show_map_link":true,"hide_from_listings":false,"sticky":false,"featured":false,"categories":[],"tags":[],"venue":{"id":973,"author":"2","status":"publish","date":"2016-09-28 22:38:40","date_utc":"2016-09-28 22:38:40","modified":"2016-09-28 23:17:41","modified_utc":"2016-09-28 23:17:41","url":"https:\/\/portofkingston.org\/venue\/village-green-community-centet-2\/","venue":"Village Green Community Center","slug":"village-green-community-centet-2","address":"26159 Dulay Road NE","city":"Kingston","country":"United States","state":"WA","zip":"98346","phone":"360-536-6940","website":"http:\/\/www.kingstonvillagegreen.org\/","stateprovince":"WA","show_map":true,"show_map_link":true,"global_id":"portofkingston.org?id=973","global_id_lineage":["portofkingston.org?id=973"]},"organizer":[],"custom_fields":[]},{"id":18894,"global_id":"portofkingston.org?id=18894","global_id_lineage":["portofkingston.org?id=18894"],"author":"7","status":"publish","date":"2026-01-26 11:42:09","date_utc":"2026-01-26 19:42:09","modified":"2026-01-26 11:42:09","modified_utc":"2026-01-26 19:42:09","url":"https:\/\/portofkingston.org\/event\/kingston-public-market-103\/","rest_url":"https:\/\/portofkingston.org\/wp-json\/tribe\/events\/v1\/events\/18894","title":"Kingston Public Market","description":"","excerpt":"","slug":"kingston-public-market-103","image":false,"all_day":false,"start_date":"2026-08-02 10:00:00","start_date_details":{"year":"2026","month":"08","day":"02","hour":"10","minutes":"00","seconds":"00"},"end_date":"2026-08-02 15:00:00","end_date_details":{"year":"2026","month":"08","day":"02","hour":"15","minutes":"00","seconds":"00"},"utc_start_date":"2026-08-02 17:00:00","utc_start_date_details":{"year":"2026","month":"08","day":"02","hour":"17","minutes":"00","seconds":"00"},"utc_end_date":"2026-08-02 22:00:00","utc_end_date_details":{"year":"2026","month":"08","day":"02","hour":"22","minutes":"00","seconds":"00"},"timezone":"America\/Los_Angeles","timezone_abbr":"PDT","cost":"","cost_details":{"currency_symbol":"$","currency_code":"USD","currency_position":"prefix","values":[]},"website":"","show_map":true,"show_map_link":true,"hide_from_listings":false,"sticky":false,"featured":false,"categories":[],"tags":[],"venue":{"id":1029,"author":"2","status":"publish","date":"2016-10-15 21:24:54","date_utc":"2016-10-15 21:24:54","modified":"2019-05-03 23:02:54","modified_utc":"2019-05-03 23:02:54","url":"https:\/\/portofkingston.org\/venue\/mike-wallace-park-2\/","venue":"Mike Wallace Marina Park","slug":"mike-wallace-park-2","address":"25864 Washington Blvd NE","city":"Kingston","country":"United States","state":"WA","zip":"98346","stateprovince":"WA","show_map":true,"show_map_link":true,"global_id":"portofkingston.org?id=1029","global_id_lineage":["portofkingston.org?id=1029"]},"organizer":[],"custom_fields":[]},{"id":18896,"global_id":"portofkingston.org?id=18896","global_id_lineage":["portofkingston.org?id=18896"],"author":"7","status":"publish","date":"2026-01-26 11:43:05","date_utc":"2026-01-26 19:43:05","modified":"2026-01-26 11:43:05","modified_utc":"2026-01-26 19:43:05","url":"https:\/\/portofkingston.org\/event\/kingston-public-market-104\/","rest_url":"https:\/\/portofkingston.org\/wp-json\/tribe\/events\/v1\/events\/18896","title":"Kingston Public Market","description":"","excerpt":"","slug":"kingston-public-market-104","image":false,"all_day":false,"start_date":"2026-08-09 10:00:00","start_date_details":{"year":"2026","month":"08","day":"09","hour":"10","minutes":"00","seconds":"00"},"end_date":"2026-08-09 15:00:00","end_date_details":{"year":"2026","month":"08","day":"09","hour":"15","minutes":"00","seconds":"00"},"utc_start_date":"2026-08-09 17:00:00","utc_start_date_details":{"year":"2026","month":"08","day":"09","hour":"17","minutes":"00","seconds":"00"},"utc_end_date":"2026-08-09 22:00:00","utc_end_date_details":{"year":"2026","month":"08","day":"09","hour":"22","minutes":"00","seconds":"00"},"timezone":"America\/Los_Angeles","timezone_abbr":"PDT","cost":"","cost_details":{"currency_symbol":"$","currency_code":"USD","currency_position":"prefix","values":[]},"website":"","show_map":true,"show_map_link":true,"hide_from_listings":false,"sticky":false,"featured":false,"categories":[],"tags":[],"venue":{"id":1029,"author":"2","status":"publish","date":"2016-10-15 21:24:54","date_utc":"2016-10-15 21:24:54","modified":"2019-05-03 23:02:54","modified_utc":"2019-05-03 23:02:54","url":"https:\/\/portofkingston.org\/venue\/mike-wallace-park-2\/","venue":"Mike Wallace Marina Park","slug":"mike-wallace-park-2","address":"25864 Washington Blvd NE","city":"Kingston","country":"United States","state":"WA","zip":"98346","stateprovince":"WA","show_map":true,"show_map_link":true,"global_id":"portofkingston.org?id=1029","global_id_lineage":["portofkingston.org?id=1029"]},"organizer":[],"custom_fields":[]}],"rest_url":"https:\/\/portofkingston.org\/wp-json\/tribe\/events\/v1\/events\/?page=1&per_page=5&start_date=2026-07-20 00:00:00&end_date=2028-07-21 23:59:59&status=publish","next_rest_url":"https:\/\/portofkingston.org\/wp-json\/tribe\/events\/v1\/events\/?per_page=5&start_date=2026-07-20+00%3A00%3A00&end_date=2028-07-21+23%3A59%3A59&status=publish&page=2","total":32,"total_pages":7}